Id;Price;Country;Color;Size;Material
17;7999;Germany;Blue;16;silver
18;1200;Brazil;Black;17;metal
19;23500;USA;Grey;15;gold
20;71599;China;Gold;20;gold
21;4750;Belgium;Grey;16;silver
22;6700;Russia;White;14;gold
23;5499;China;Red;15;silver
24;31200;Germany;Gold;18;gold
