Id;Price;Country;Color;Size;LiningMaterial;OuterMaterial;Clasp
1;4300;Canada;Black;39;textile;leather;lacing
2;2150;Brazil;White;38;fur;suede;zipper
3;10700;USA;Red;38;textile;leather;lacing
4;1600;Belarus;Black;40;felt;nubuck;flypaper
5;5390;Belgium;Green;37;textile;leather;lacing
6;6599;Russia;White;39;felt;nubuck;zipper
7;1000;China;Blue;36;textile;textile;lacing
8;599;Germany;White;38;textile;textile;lacing
